{
  "name": "Branding: AOE Skin",
  "description": "DTAG Styles for Cumulocity provided by AOE.",
  "category": "Branding",
  "icon": "bell",
  "color": "#F2DF0F",
  "ngModules": [
    "aoeskin.branding"
  ],
  "less": [
    "style/main.less"
  ],
  "js": [
    "index.js"
  ],
  "copy": [
    "img/*"
  ]
}
